<?xml version="1.0" standalone="no"?>
<!DOCTYPE svg PUBLIC "-//W3C//DTD SVG 1.1//EN" "http://www.w3.org/Graphics/SVG/1.1/DTD/svg11.dtd">
<svg xmlns="http://www.w3.org/2000/svg">
<metadata>Copyright (C) 2014 by original authors @ fontello.com</metadata>
<defs>
<font id="hotelgmahler-icons" horiz-adv-x="1000" >
<font-face font-family="hotelgmahler-icons" font-weight="400" font-stretch="normal" units-per-em="1000" ascent="850" descent="-150" />
<missing-glyph horiz-adv-x="1000" />
<glyph glyph-name="phone" unicode="&#xe800;" d="m0 589q0 52 29 104 31 57 59 68 14 6 38 12t39 6q8 0 12-2 10-3 30-43 6-10 16-30t20-35 17-30q2-2 10-14t12-20 4-16q0-11-16-27t-35-31-34-30-16-25q0-5 3-13t4-11 8-14 7-10q42-77 97-132t131-97q1 0 10-6t14-8 11-5 13-2q10 0 25 15t30 35 31 35 28 16q7 0 15-4t20-12 14-10q14-8 30-17t36-20 30-17q39-19 42-29 2-4 2-12 0-15-6-39t-12-38q-11-28-68-60-52-28-103-28-16 0-30 2t-32 7-26 8-31 11-28 10q-54 20-97 47-72 44-148 120t-120 148q-27 43-46 97-2 5-10 28t-12 31-8 26-7 32-2 29z" horiz-adv-x="785.7" />
<glyph glyph-name="calendar-empty" unicode="&#xe801;" d="m0-79v715q0 29 21 50t50 21h72v54q0 36 26 63t63 26h36q37 0 63-26t26-63v-54h214v54q0 36 27 63t63 26h35q37 0 63-26t27-63v-54h71q29 0 50-21t22-50v-715q0-29-22-50t-50-21h-786q-29 0-50 21t-21 50z m71 0h786v572h-786v-572z m143 679q0-8 5-13t13-5h36q8 0 13 5t5 13v161q0 8-5 13t-13 5h-36q-8 0-13-5t-5-13v-161z m429 0q0-8 5-13t13-5h35q8 0 13 5t5 13v161q0 8-5 13t-13 5h-35q-8 0-13-5t-5-13v-161z" horiz-adv-x="928.6" />
<glyph glyph-name="location" unicode="&#xe802;" d="m0 493q0 118 84 202t202 84 202-84 83-202q0-61-18-100l-203-432q-9-18-27-29t-37-11-38 11-26 29l-204 432q-18 39-18 100z m143 0q0-59 42-101t101-42 101 42 42 101-42 101-101 42-101-42-42-101z" horiz-adv-x="571.4" />
<glyph glyph-name="facebook" unicode="&#xe803;" d="m500 644l-142 0q-14 0-25-15t-11-37l0-102 178 0 0-148-178 0 0-442-170 0 0 442-152 0 0 148 152 0 0 86q0 94 59 159t147 65l142 0 0-156z" horiz-adv-x="500" />
<glyph glyph-name="twitter" unicode="&#xe804;" d="m25 74q19-2 43-2 126 0 224 77-59 1-105 36t-64 89q19-3 34-3 24 0 48 6-63 13-104 62t-41 115v2q38-21 82-23-37 25-59 64t-22 86q0 49 25 91 67-83 164-133t208-55q-5 21-5 41 0 75 53 127t127 53q78 0 132-57 61 12 114 44-20-64-79-100 52 6 104 28-37-54-90-93 0-8 0-23 0-73-21-145t-64-139-103-117-144-82-181-30q-151 0-276 81z" horiz-adv-x="928.6" />
<glyph glyph-name="up-open" unicode="&#xe805;" d="m50 133q0 14 11 25l414 414q11 10 25 10t25-10l414-414q11-11 11-25t-11-26l-92-92q-11-10-26-10t-25 10l-296 297-296-297q-11-10-25-10t-26 10l-92 92q-11 11-11 26z" horiz-adv-x="1000" />
</font>
</defs>
</svg>